{
    "LanguageName": "Русский",

    "LoadingText": "Загрузка...",
    "OkButton": "ОК",
    "CancelButton": "Отмена",
    "YesButton": "Да",
    "NoButton": "Нет",
    "ContinueButton": "Продолжить",
    "BackButton": "Назад",
    "ExitButton": "Выйти",
    "EditButton": "Редактировать",
    "SaveButton": "Сохранить",
    "CopyButton": "Скопировать",
    "ChooseFileButton": "Выбрать файл...",
    "DefaultValueText": "{} (по умолчанию)",
    "ErrorPopup": {
        "TitleText": "Ошибка!"
    },
    
    "TitleScreen": {
        "DemoText": "ДЕМО",
        "SingleplayerButton": "Одиночная игра",
        "MultiplayerButton": "Сетевая игра",
        "TutorialButton": "Обучение",
        "SettingsButton": "Настройки",
        "CreditsButton": "Титры",
        "QuitButton": "Выйти из игры"
    },
    
    "Singleplayer": {
        "YourWorldsText": "Миры:",
        "NoWorldsText": "Нет миров...",
        "InvalidWorldButton": "{} (недействительный)",
        "OldWorldButton": "{} (старый)",
        "NewWorldButton": "Создать Новый Мир",
        "WorldConversionPopup": {
            "TitleText": "Конвертировать в Новый Формат Мира?",
            "OldWorldVersionText": "Мир \"{}\" не может быть загружен, потому что он использует устаревшую версию формата ({}), которая несовместима с текущей версией ({}).",
            "OldWorldVersionlessText": "Мир \"{}\" не может быть загружен, потому что он использует устаревшую версию формата, которая несовместима с текущей версией.",
            "ConversionPromptText": "Хотите ли вы конвертировать мир до текущей версии? У вас будет возможность создать резервную копию перед этим."
        },
        "InvalidWorldPopup": {
            "TitleText": "Недействительный Мир!",
            "InvalidVersionText": "Мир \"{}\" не может быть загружен, потому что он либо из более новой версии 4D Miner, либо имеет недействительное значение версии."
        }
    },

    "Multiplayer": {
        "ServerAddressText": "Адрес Сервера:",
        "DisplayNameText": "Имя:",
        "DisplayNameInput": "Player",
        "UuidText": "UUID:",
        "UuidDescriptionText": "Твой UUID это секретное значение которое сгенерировано при первом открытии этого меню.\nUUID позволяют сохранять твой прогресс на разных серверах.\n\nНИ В КОЕМ СЛУЧАЕ не делитесь им с другими.\nВы можете сохранить свой UUID между разными установками игры заменяя/редактируя \"uuid.txt\" файл.",
        "JoinButton": "Присоединится!",
        "ChangeSkinButton": "Поменять Скин",
        "Status": {
            "ResolvingHostText": "Определение хоста...",
            "ConnectingText": "Подключение...",
            "AuthenticatingText": "Авторизация...",
            "RemoteDisconnectedText": "Ошибка: Подключение было закрыто сервером.",
            "FailedToConnectText": "Ошибка: Не удалось подключиться.",
            "ErrorText": "Произошла ошибка.",
            "LoadingTerrainText": "Загрузка мира...",
            "QueuePositionText": "Позиция в очереди: {}",
            "InvalidResponseText": "Ошибка: Недействительный ответ сервера.",
            "IncompatibleVersionText": "Ошибка: Версия игры не поддерживается сервером.\n\nПоддерживаемые версии: {}",
            "ServerFullText": "Ошибка: Сервер уже заполнен.",
            "LostConnectionText": "Ошибка: Соединение потеряно."
        }
    },
    
    "CreateWorld": {
        "WorldNameText": "Название Мира:",
        "WorldNameInput": "Новый Мир",
        "WorldSeedText": "Сид Мира:",
        "FlatWorldCheckbox": "Плоский Мир",
        "GenerateCavesCheckbox": "Генерировать пещеры (медленнее)",
        "CaveSizeSlider": "Размер пещер: {}%",
        "CaveFrequencySlider": "Частота пещер: {}%",
        "CaveDetailLevelSlider": "Уровень детализации пещер: {} (значительно медленнее)",
        "BiomeSizeSlider": "Размер биомов: {}%",
        "TerrainAmplificationSlider": "Усиление ландшафта: {}%",
        "CreateNewWorldButton": "Создать Новый Мир!",
        "NoNamePopup": {
            "NoNameText": "Невозможно создать мир без названия!"
        }
    },

    "WorldConverter": {
        "CloseWarningText": "Пожалуйста, не закрывайте игру!",
        "BackupWorldTitle": "(резервная копия)",
        "BackupStatusText": "Создание резервной копии мира \"{}\"...",
        "ConversionStatusText": "Конвертируем мир \"{}\" с версии {} до версии {}...",
        "ConversionFinishedText": "Готово!",
        "BackupPopup": {
            "TitleText": "Создать резервную копию мира \"{}\"?",
            "PromptText": "Данные мира \"{}\" могут быть поврежденны при конвертации. Хотите сначала создать резервную копию?"
        },
        "ErrorPopup": {
            "GenericConversionErrorText": "Произошла ошибка при попытке обновления мира до версии {}.",
            "InvalidObjectText": "Не удалось скопировать недействительный объект \"{}\" (ожидался каталог либо обычный файл).",
            "CopyErrorText": "Не удалось скопировать объект \"{}\": \"{}\"",
            "MissingChunksDirText": "Папка \"chunks\" не найдена.",
            "UnableToOpenFileText": "Не удалось открыть файл \"{}\"."
        },
        "ConversionStatus": {
            "CleaningUpText": "Идёт очистка..."
        }
    },
    
    "WorldGen": {
        "ProgressText": "Загруженно {}/{} чанков"
    },

    "Settings": {
        "ControlsButton": "Управление",
        "FullscreenButton": {
            "EnterText": "Войти в Полноэкранный Режим",
            "ExitText": "Выйти из Полноэкранного Режима"
        },
        "RenderDistanceSlider": "Дальность Прорисовки: {}",
        "ScrollSensitivitySlider": "Чувствительность Прокрутки:",
        "LookSensitivitySlider": "Чувствительность Мыши:",
        "InvertLookXCheckbox": "Инверсия Мыши по X",
        "InvertLookYCheckbox": "Инверсия Мыши по Y",
        "FovSlider": {
            "LabelText": "Угол обзора: {}",
            "ValueText": "{} градусов"
        },
        "DifficultySlider": {
            "LabelText": "Сложность: {}",
            "EasyText": "Лёгкая (без мобов)",
            "NormalText": "Нормальная",
            "HardText": "Сложная"
        },
        "SmoothLightingCheckbox": "Мягкое Освещение",
        "ShadowsCheckbox": "Тени",
        "ColoredLightsCheckbox": "Цветное Освещение",
        "Forg": {
            "LabelText": "Форг: {}",
            "Names": {
                "Frank": "Фрэнк",
                "Fernanda": "Фернанда"
            }
        },
        "Audio": {
            "LabelText": "Звук:",
            "GlobalVolumeSlider": "Общая Громкость:",
            "MusicVolumeSlider": "Громкость Музыки:",
            "CreatureVolumeSlider": "Громкость Существ:",
            "AmbienceVolumeSlider": "Громкость Окружения:"
        },
        "Multiplayer": {
            "LabelText": "Сетевая игра:",
            "ChatCheckbox": "Отображать Чат",
            "NametagsCheckbox": "Отображать Имена Игроков",
            "SkinsCheckbox": "Отображать Скины Игроков"
        }
    },

    "Tutorial": {
        "Slideshow": {
            "Slide1": {
                "Text1": "Это обучение создано для того, чтобы помочь вам понять 4-х мерное пронстранство\n\n\n\nСравнивая различия между 2D и 3D пронстранствами, можно понять, как 3D пронстранство относится к 4D пронстранству."
            },
            "Slide2": {
                "Text1": "Это форг под именем {} ( да, ФОРГ, не фрог (лягушка) )",
                "Text2": "Форги - это двухмерные существа, что значит они могут существовать только на 2D плоскости, но это не значит, что они не могут исследовать 3-х мерный мир!\n\n\n\nФорги могут двигатся в любом 2D сечении 3D мира вокруг них."
            },
            "Slide3": {
                "Text1": "Форги также имеют уникальную способность вращать их 2D плоскость существования в 3-х измерениях, позволяя им видеть любое сечение, которое они хотят!",
                "Text2": "В следующей секции вы сможете управлять {} и ощутить эту способность сами!"
            },
            "Slide4": {
                "Text1": "Эта же логика применяется к 3-м и 4-м измерениям.\n\n\nВы можете использовать колёсико мыши, чтобы вращать свой обзор 4-х мерного мира и видеть совершенно новые аспекты местности!",
                "Text2": "Теперь вы готовы играть в 4D Miner! Если вам нужна помощь в навигации 4-мерного мира, ищите",
                "Text3": "компас!"
            }
        },
        "ForgGame": {
            "2DViewText": "WASD либо стрелки, чтобы перемещать {} форга.\n\nВращайте колёсико мыши для вращения 2-х мерной плоскости сечения!",
            "3DViewText": "Зажмите и двигайте курсор для управления 3D обзором"
        }
    },

    "Game": {
        "Chat": {
            "LabelText": "Чат:"
        },
        "CraftingMenu": {
            "LabelText": "Крафты:"
        },
        "Compass": {
            "PositionText": "Позиция: {0}, {1}, {2}, {3}",
            "FacingDirectionText": "Направление: {0}, {1}, {2}, {3}",
            "XText": "X: {}",
            "YText": "Y: {}",
            "ZText": "Z: {}",
            "WText": "W: {}"
        },
        "Chest": {
            "LabelText": "Сундук:"
        },
        "Sign": {
            "LabelText": "Табличка:"
        }
    },

    "Pause": {
        "PausedText": "В паузе...",
        "BackToGameButton": "Вернуться в игру...",
        "QuitToTitleButton": "Выйти в Главное Меню"
    },

    "DeathScreen": {
        "RetryButton": "Возродиться..."
    },

    "Items": {
        "Air": "Воздух",
        "Grass": "Трава",
        "Dirt": "Земля",
        "Stone": "Камень",
        "Wood": "Древесина",
        "Leaf": "Красная Листва",
        "SemiMoltenRock": "Полурасплавленный Камень",
        "IronOre": "Железная Руда",
        "DeadlyOre": "Смертоносная Руда",
        "Chest": "Сундук",
        "MidnightGrass": "Полуночная Трава",
        "MidnightSoil": "Полуночная Земля",
        "MidnightStone": "Полуночный Камень",
        "MidnightWood": "Полуночная Древесина",
        "MidnightLeaf": "Полуночная Листва",
        "Bush": "Куст",
        "MidnightBush": "Полуночный Куст",
        "RedFlower": "Красный Цветок",
        "WhiteFlower": "Белый Цветок",
        "BlueFlower": "Синий Цветок",
        "TallGrass": "Длинная Трава",
        "Sand": "Песок",
        "Sandstone": "Песчаник",
        "Cactus": "Кактус",
        "Snow": "Снег",
        "Ice": "Лёд",
        "SnowyBush": "Снежный Куст",
        "Glass": "Стекло",
        "SolenoidOre": "Соленоидальная Руда",
        "SnowyLeaf": "Снежная Листва",
        "Pumpkin": "Тыква",
        "JackOLantern": "Светильник Джека",
        "PalmWood": "Пальмовая Древесина",
        "PalmLeaf": "Пальмовая Листва",
        "Water": "Вода",
        "Lava": "Лава",
        "VolcanicRock": "Вулканический Камень",
        "GrassSlab": "Плита из Травы",
        "GlassSlab": "Стеклянная Плита",
        "DirtSlab": "Плита из Земли",
        "StoneSlab": "Плита из Камня",
        "WoodSlab": "Плита из Древесины",
        "SemiMoltenRockSlab": "Плита из Полурасплавленного Камня",
        "MidnightStoneSlab": "Плита из Полуночного Камня",
        "MidnightWoodSlab": "Плита из Полуночной Древесины",
        "SandstoneSlab": "Плита из Песчаника",
        "SnowSlab": "Плита из Снега",
        "IceSlab": "Ледяная Плита",
        "PalmWoodSlab": "Плита из Пальмовой Древесины",
        "VolcanicRockSlab": "Плита из Вулканического Камня",
        "Stick": "Палка",
        "Hammer": "Молот",
        "IronPick": "Железная Кирка",
        "DeadlyPick": "Смертоносная Кирка",
        "IronAxe": "Железный Топор",
        "DeadlyAxe": "Смертоносный Топор",
        "Ultrahammer": "Ультра-молот",
        "SolenoidCollector": "Соленоидальный Собиратель",
        "Rock": "Камешек",
        "Hypersilk": "Гипер-шёлк",
        "IronBars": "Железные Слитки",
        "DeadlyBars": "Смертоносные Слитки",
        "SolenoidBars": "Соленоидальные Слитки",
        "Compass": "Компас",
        "4DGlasses": "4D Очки",
        "KleinBottle": "Бутылка Клейна",
        "HealthPotion": "Зелье Здоровья",
        "RedLens": "Красная Линза",
        "GreenLens": "Зелёная Линза",
        "BlueLens": "Синяя Линза",
        "Alidade": "Алидада",
        "Sign": "Табличка",
        "Bucket": "Ведро",
        "WaterBucket": "Ведро Воды",
        "LavaBucket": "Ведро Лавы"
    }
}