{
    "LanguageName": "Українська",

    "LoadingText": "Завантаження...",
    "OkButton": "Гаразд",
    "CancelButton": "Скасувати",
    "YesButton": "Так",
    "NoButton": "Ні",
    "ContinueButton": "Продовжити",
    "BackButton": "Назад",
    "ExitButton": "Вийти",
    "DefaultValueText": "{} (кшталтовано)",
    "ErrorPopup": {
        "TitleText": "Помилка!"
    },
    
    "TitleScreen": {
        "SingleplayerButton": "Гра наодинці",
        "MultiplayerButton": "Гра мережею",
        "TutorialButton": "Як грати?",
        "SettingsButton": "Налаштування",
        "CreditsButton": "Подяки",
        "QuitButton": "Вийти"
    },
    
    "Singleplayer": {
        "YourWorldsText": "Ваші світи:",
        "NoWorldsText": "Тут немає світів для завантаження...",
        "InvalidWorldButton": "{} (недійсний)",
        "OldWorldButton": "{} (старий)",
        "NewWorldButton": "Новий світ",
        "WorldConversionPopup": {
            "TitleText": "Конвертувати до формату нового світу?",
            "OldWorldVersionText": "Світ \"{}\" неможливо завантажити бо він використовує застарівший формат світу ({}), який несумісний з нинішньою версією ({}).",
            "OldWorldVersionlessText": "Світ \"{}\" неможливо завантажити бо він використовує застарівший формат світу ({}), який несумісний з нинішньою версією.",
            "ConversionPromptText": "Бажаєте конвертувати світ до нової версії? Ви зобовʼязанні спочатку створити резервну копію світу."
        },
        "InvalidWorldPopup": {
            "TitleText": "Не доступний світ!",
            "InvalidVersionText": "Світ \"{}\" не може бути завантаженним оскільки він або з найновішої версії 4D Miner, або світ має неправильну назву версії гри."
        }
    },
    
    "CreateWorld": {
        "WorldNameText": "Назва світу:",
        "WorldNameInput": "Новий світ",
        "WorldSeedText": "Сід світу:",
        "FlatWorldCheckbox": "Плаский світ",
        "GenerateCavesCheckbox": "Створювати печери (повільніше)",
        "CaveSizeSlider": "Розміри печер: {}%",
        "CaveFrequencySlider": "Частота печер: {}%",
        "CaveDetailLevelSlider": "Рівень деталізації печер: {} (серйозно впливає на продуктивність гри)",
        "BiomeSizeSlider": "Biome Size: {}%",
        "TerrainAmplificationSlider": "Підсилення рельєфу місцевості: {}%",
        "CreateNewWorldButton": "Створити новий світ!",
        "NoNamePopup": {
            "NoNameText": "Ви не можете створити світ без назви!"
        }
    },

    "WorldConverter": {
        "CloseWarningText": "Будь ласка НЕ ЗАКРИВАЙТЕ гру!",
        "BackupWorldTitle": "{} (backup)",
        "BackupStatusText": "Резеврне копіювання світу \"{}\"...",
        "ConversionStatusText": "Конвертуємо світ \"{}\" із версії {} до версії {}...",
        "ConversionFinishedText": "Закінчили!",
        "BackupPopup": {
            "TitleText": "Створити резервну копію файлів \"{}\" ? ",
            "PromptText": "Збереженні данні про світ \"{}\" можуть бути спотворенні при конвертації. Бажаєте створити резервну копію?"
        },
        "ErrorPopup": {
            "GenericConversionErrorText": "Сталася помилка при оновленні світу до версії {}.",
            "InvalidObjectText": "Неможливо копіювати помилковий обʼєкт \"{}\" (ми очікували теку або звичайний файл).",
            "CopyErrorText": "Неможливо копіювати обʼєкт \"{}\": \"{}\"",
            "MissingChunksDirText": "Тека \"chunks\" зникла.",
            "UnableToOpenFileText": "Неможливо відкрити файл \"{}\"."
        },
        "ConversionStatus": {
            "CleaningUpText": "Зачищаємо зайве..."
        }
    },
    
    "WorldGen": {
        "ProgressText": "{}/{} чанків завантажено"
    },

    "Settings": {
        "ControlsButton": "Керування",
        "FullscreenButton": {
            "EnterText": "Увійти до повноекранного режиму",
            "ExitText": "Вийти з повноекранного режиму"
        },
        "RenderDistanceSlider": "Відстань промальовки: {}",
        "ScrollSensitivitySlider": "Чутливість прокрутки:",
        "LookSensitivitySlider": "Чутливість огляду:",
        "InvertLookXCheckbox": "Віддзеркалити огляд за X",
        "InvertLookYCheckbox": "Віддзеркалити огляд за Y",
        "FovSlider": {
            "LabelText": "Кут огляду: {}",
            "ValueText": "{} градусів"
        },
        "DifficultySlider": {
            "LabelText": "Складність: {}",
            "EasyText": "Легка (без агресивних істот)",
            "NormalText": "Звичайна",
            "HardText": "Складна"
        },
        "SmoothLightingCheckbox": "Гладке освітлення",
        "ShadowsCheckbox": "Тіні",
        "ColoredLightsCheckbox": "Кольорове сяйво",
        "Forg": {
            "LabelText": "Жбака: {}",
            "Names": {
                "Frank": "Френк",
                "Fernanda": "Фернанда"
            }
        },
        "Audio": {
            "LabelText": "Звук:",
            "GlobalVolumeSlider": "Рівень звучання загалом:",
            "MusicVolumeSlider": "Звучання музики:",
            "CreatureVolumeSlider": "Звучання істот:",
            "AmbienceVolumeSlider": "Звучання атмосфери:"
        },
        "Multiplayer": {
            "LabelText": "Гра мережею:",
            "ChatCheckbox": "Показувати чат",
            "NametagsCheckbox": "Показуати зазначки",
            "SkinsCheckbox": "Показувати власні скіни гравців"
        }
    },

    "Tutorial": {
        "Slideshow": {
            "Slide1": {
                "Text1": "Цей посібник допоможе вам зрозуміти 4-вимірний простір.\n\n\n\n\nПорівнявши відмінності між 2В і 3В просторами, опісля чого ви зможете отримати уявлення про те, як 3В простір співвідноситься із 4В простором.."
            },
            "Slide2": {
                "Text1": "Це жбака {} (так, ЖБАКА)",
                "Text2": "Жбаки є 2В істотами, а це означає що вони можуть бачити лише 2В площину, але це зовсім не означає що вони не можуть досліджувати 3В площину!\n\n\n\nЖабки можуть рухатися усередині будь-якого попереченого розрізу 3В світу довкола них."
            },
            "Slide3": {
                "Text1": "Жбаки також мають унікальну здатність обертати свої площини існування у третьому вимірі, що дозволяє їм бачити будь-який позріз, який вони захочуть!",
                "Text2": "У наступній частині ви зможете контролювати {} та відчути цю силу на власному досвіді!"
            },
            "Slide4": {
                "Text1": "Схожа логіка застосовується і до третього із четвертим вимірами.\n\n\nВи можете прокручувати мишкою, аби обертати свою перспективу на 4В світ і бачити абсолютно нові аспекти місцевості!",
                "Text2": "Тепер ви готові аби грати у 4D Miner! Якщо вам треба більше допомоги у навігації 4В простором, виробіть",
                "Text3": "компас!"
            }
        },
        "ForgGame": {
            "2DViewText": "WASD або клавіші стрілочок аби рухати жбаку {}.\n\nПокрутіть колесом миші аби обернути 2В розріз!",
           "3DViewText": "Затисніть і протягніть аби підправити 3В вигляд."
        }
    },

    "Game": {
        "Chat": {
            "LabelText": "Чат:"
        },
        "CraftingMenu": {
            "LabelText": "Виготовлення:"
        },
        "Compass": {
            "PositionText": "Позиція за координатами: {0}, {1}, {2}, {3}",
            "FacingDirectionText": "Дивитеся у напрямку координат: {0}, {1}, {2}, {3}",
            "XText": "X: {}",
            "YText": "Y: {}",
            "ZText": "Z: {}",
            "WText": "W: {}"
        },
        "Chest": {
            "LabelText": "Скриня:"
        }
    },

    "Pause": {
        "PausedText": "Призупинено...",
        "BackToGameButton": "Назад до гри...",
        "QuitToTitleButton": "Вийти до головного меню"
    },

    "Items": {
        "Air": "Повітря",
        "Grass": "Трава",
        "Dirt": "Земля",
        "Stone": "Камінь",
        "Wood": "Дерево",
        "Leaf": "Листочок",
        "SemiMoltenRock": "Напівплавленний камінь",
        "IronOre": "Залізна руда",
        "DeadlyOre": "Смертельна руда",
        "Chest": "Скриня",
        "MidnightGrass": "Опівнічна трава",
        "MidnightSoil": "Опівнічний ґрунт",
        "MidnightStone": "Опівнічний камінь",
        "MidnightWood": "Опівнічне дерево",
        "MidnightLeaf": "Опівнічний листочок",
        "Bush": "Куст",
        "MidnightBush": "Опівнічний куст",
        "RedFlower": "Червона квіточка",
        "WhiteFlower": "Біла квіточка",
        "BlueFlower": "Синя квіточка",
        "TallGrass": "Висока трава",
        "Sand": "Пісок",
        "Sandstone": "Пісковик",
        "Cactus": "Кактус",
        "Snow": "Сніг",
        "Ice": "Лід",
        "SnowyBush": "Засніжений куст",
        "Glass": "Скло",
        "SolenoidOre": "Соленоїдна руда",
        "SnowyLeaf": "Засніжений листочок",
        "Pumpkin": "Гарбуз",
        "JackOLantern": "Джековий ліхтар",
        "PalmWood": "Пальмова деревина",
        "PalmLeaf": "Пальмовий листочок",
        "Water": "Вода",
        "Lava": "Лава",
        "GrassSlab": "Травʼяна плита",
        "DirtSlab": "Земляна плита",
        "StoneSlab": "Камʼяна плита",
        "WoodSlab": "Деревʼяна плита",
        "MidnightStoneSlab": "Опівнічно камʼянна плита",
        "MidnightWoodSlab": "Опівнічно деревʼяна плита",
        "SandstoneSlab": "Пісковикова плита",
        "SnowSlab": "Сніжна плита",
        "IceSlab": "Льодова плита",
        "GlassSlab": "Скляна плита",
        "PalmWoodSlab": "Пальмова плита",
        "Stick": "Палка",
        "Hammer": "Молоток",
        "IronPick": "Залізна кирка",
        "DeadlyPick": "Смертельна кирка",
        "IronAxe": "Залізна сокира",
        "DeadlyAxe": "Смертельна сокира",
        "Ultrahammer": "Ультрасокира",
        "SolenoidCollector": "Соленоїдновий збирач",
        "Rock": "Камінчик",
        "Hypersilk": "Гіпершовк",
        "IronBars": "Залізні cтрижні",
        "DeadlyBars": "Смертельні стрижні",
        "SolenoidBars": "Соленоїдові стрижні",
        "Compass": "Компас",
        "4DGlasses": "Окуляри 4В",
        "KleinBottle": "Кляйнова пляшка",
        "HealthPotion": "Зілля здоровʼя",
        "RedLens": "Червона лінза",
        "GreenLens": "Зелена лінза",
        "BlueLens": "Синя лінза",
        "Alidade": "Аліяда",
        "Sign": "Табличка",
        "Bucket": "Відро",
        "WaterBucket": "Відро води",
        "LavaBucket": "Відро лави"
    }
} 
